…
Retain line, station,name, station latitude / longitude, routes served,
entry, vending, entrance type, and ADA compliance

``` r
view(NYC_transit)
select(NYC_transit, -division)
```

    ## # A tibble: 1,868 x 31
    ##    line     station_~1 stati~2 stati~3 route1 route2 route3 route4 route5 route6
    ##    <chr>    <chr>        <dbl>   <dbl> <chr>  <chr>  <chr>  <chr>  <chr>  <chr> 
    ##  1 4 Avenue 25th St       40.7   -74.0 R      <NA>   <NA>   <NA>   <NA>   <NA>  
    ##  2 4 Avenue 25th St       40.7   -74.0 R      <NA>   <NA>   <NA>   <NA>   <NA>  
    ##  3 4 Avenue 36th St       40.7   -74.0 N      R      <NA>   <NA>   <NA>   <NA>  
    ##  4 4 Avenue 36th St       40.7   -74.0 N      R      <NA>   <NA>   <NA>   <NA>  
    ##  5 4 Avenue 36th St       40.7   -74.0 N      R      <NA>   <NA>   <NA>   <NA>  
    ##  6 4 Avenue 45th St       40.6   -74.0 R      <NA>   <NA>   <NA>   <NA>   <NA>  
    ##  7 4 Avenue 45th St       40.6   -74.0 R      <NA>   <NA>   <NA>   <NA>   <NA>  
    ##  8 4 Avenue 45th St       40.6   -74.0 R      <NA>   <NA>   <NA>   <NA>   <NA>  
    ##  9 4 Avenue 45th St       40.6   -74.0 R      <NA>   <NA>   <NA>   <NA>   <NA>  
    ## 10 4 Avenue 53rd St       40.6   -74.0 R      <NA>   <NA>   <NA>   <NA>   <NA>  
    ## # ... with 1,858 more rows, 21 more variables: route7 <chr>, route8 <dbl>,
    ## #   route9 <dbl>, route10 <dbl>, route11 <dbl>, entrance_type <chr>,
    ## #   entry <chr>, exit_only <chr>, vending <chr>, staffing <chr>,
    ## #   staff_hours <chr>, ada <lgl>, ada_notes <chr>, free_crossover <lgl>,
    ## #   north_south_street <chr>, east_west_street <chr>, corner <chr>,
    ## #   entrance_latitude <dbl>, entrance_longitude <dbl>, station_location <chr>,
    ## #   entrance_location <chr>, and abbreviated variable names ...
